…
mcclatch
```

    ## # A tibble: 88 x 4
    ##    candidate        won       type     incumbent    
    ##    <chr>            <chr>     <chr>    <chr>        
    ##  1 <U+2713> Martha Roby    Undecided House    Incumbent    
    ##  2 <U+2713> Mike Dunleavy  Undecided Governor Not Incumbent
    ##  3 Martha McSally   Undecided Senate   Not Incumbent
    ##  4 <U+2713> Andy Biggs     Undecided House    Incumbent    
    ##  5 <U+2713> Doug Ducey     Undecided Governor Incumbent    
    ##  6 <U+2713> Asa Hutchinson Undecided Governor Incumbent    
    ##  7 Dana Rohrabacher Undecided House    Incumbent    
    ##  8 <U+2713> Devin Nunes    Undecided House    Incumbent    
    ##  9 <U+2717>  Diane Harkey  Undecided House    Not Incumbent
    ## 10 <U+2713> Kevin McCarthy Undecided House    Incumbent    
    ## # ... with 78 more rows

    ## # A tibble: 95 x 3
    ##    candidate      won       type    
    ##    <chr>          <chr>     <chr>   
    ##  1 Martha Roby    Won       House   
    ##  2 Mike Dunleavy  Undecided Governor
    ##  3 Martha McSally Undecided House   
    ##  4 Andy Biggs     Won       House   
    ##  5 Doug Ducey     Won       Governor
    ##  6 Asa Hutchinson Won       Governor
    ##  7 Paul Cook      Won       House   
    ##  8 Diane Harkey   Undecided House   
    ##  9 Devin Nunes    Won       House   
    ## 10 Kevin McCarthy Won       House   
    ## # ... with 85 more rows

## Checking for Missings/Errors/Disagreements between Data Sources

Let’s merge the datasets and see if we find any errors.

``` r
politico %>% 
  full_join(mcclatch, by = "candidate") %>% 
  filter(is.na(won.x) | is.na(won.y))
```

    ## # A tibble: 169 x 6
    ##    candidate      won.x     type.x   won.y type.y incumbent
    ##    <chr>          <chr>     <chr>    <chr> <chr>  <chr>    
    ##  1 Martha Roby    Won       House    <NA>  <NA>   <NA>     
    ##  2 Mike Dunleavy  Undecided Governor <NA>  <NA>   <NA>     
    ##  3 Andy Biggs     Won       House    <NA>  <NA>   <NA>     
    ##  4 Doug Ducey     Won       Governor <NA>  <NA>   <NA>     
    ##  5 Asa Hutchinson Won       Governor <NA>  <NA>   <NA>     
    ##  6 Paul Cook      Won       House    <NA>  <NA>   <NA>     
    ##  7 Diane Harkey   Undecided House    <NA>  <NA>   <NA>     
    ##  8 Devin Nunes    Won       House    <NA>  <NA>   <NA>     
    ##  9 Kevin McCarthy Won       House    <NA>  <NA>   <NA>     
    ## 10 John Cox       Lost      Governor <NA>  <NA>   <NA>     
    ## # ... with 159 more rows
…
We can now use the Politico dataset as base, as it is the most complete
dataset:

``` r
trump_endorsements <- politico  %>% 
  left_join(mcclatch, by = "candidate") %>% 
  rename(results = won.x) %>% 
  rename(type = type.x) %>% 
  select(candidate, results, type, incumbent) %>% 
  arrange(candidate)

trump_endorsements
```

    ## # A tibble: 95 x 4
    ##    candidate       results   type     incumbent    
    ##    <chr>           <chr>     <chr>    <chr>        
    ##  1 Adam Laxalt     Lost      Governor <NA>         
    ##  2 Andy Barr       Won       House    <NA>         
    ##  3 Andy Biggs      Won       House    <NA>         
    ##  4 Asa Hutchinson  Won       Governor <NA>         
    ##  5 Bill Lee        Won       Governor <NA>         
    ##  6 Bill Schuette   Lost      Governor <NA>         
    ##  7 Bob Hugin       Lost      Senate   <NA>         
    ##  8 Bob Stefanowski Lost      Governor <NA>         
    ##  9 Brian Kemp      Undecided Governor Not Incumbent
    ## 10 Bruce Poliquin  Undecided House    Incumbent    
    ## # ... with 85 more rows
…
